{
    "schemaVersion": 1,
    "id": "placeableitems",
    "version": "${version}",
    "name": "Placeable Items",
    "description": "Port of PlaceableItem by Ferdz_. Ported by Biom4st3r",
    "authors": [
        "Ferdz_ ",
        "masterianox",
        "biom4st3r"
    ],
    "contact": {
        "homepage": "https://minecraft.curseforge.com/projects/fabric-more-enchantments",
        "sources": "https://gitlab.com/biom4st3r/moenchantments"
    },
    "license": "CC0-1.0",
    "icon": "assets/placeableitems/icon.png",
    "environment": "*",
    "entrypoints": {
        "main": [
            "me.ferdz.placeableitems.PlaceableItems"
        ],
        "client": [
        ]
    },
    "mixins": [
        "placeableitems.common.json"
    ],
    "requires": {
        "fabricloader": ">=0.4.0",
        "fabric": "*"
    },
    "suggests": {
        "flamingo": "*"
    }
}